Date,Morning,Afternoon,Evening,Maximum_capacity,Percentage_Morning,Percentage_Afternoon,Percentage_Evening,Day_of_week,Month_of_year,In_Session
0017-11-28,17,28,34,70,24,40,49,1,11,1
0017-11-29,12,24,33,70,17,34,47,2,11,1
0017-11-30,10,21,21,70,14,30,30,3,11,1
0017-12-01,13,24,22,70,19,34,31,4,12,1
0017-12-02,8,15,19,70,11,21,27,5,12,1
0017-12-03,10,14,19,70,14,20,27,6,12,1
0017-12-04,13,26,33,70,19,37,47,0,12,1
0017-12-05,10,25,27,70,14,36,39,1,12,1
0017-12-06,11,23,32,70,16,33,46,2,12,1
0017-12-07,12,23,28,70,17,33,40,3,12,1
0017-12-08,10,25,30,70,14,36,43,4,12,1
0017-12-09,17,19,20,70,24,27,29,5,12,1
0017-12-10,14,14,15,70,20,20,21,6,12,1
0017-12-11,7,18,20,70,10,26,29,0,12,1
0017-12-12,6,20,22,70,9,29,31,1,12,1
0017-12-13,6,18,13,70,9,26,19,2,12,1
0017-12-14,6,13,13,70,9,19,19,3,12,1
0017-12-15,4,15,26,70,6,21,37,4,12,1
0017-12-16,13,17,20,70,19,24,29,5,12,1
0017-12-17,12,14,17,70,17,20,24,6,12,1
0017-12-18,10,9,27,70,14,13,39,0,12,1
0017-12-19,11,6,4,70,16,9,6,1,12,1
0017-12-20,10,6,26,70,14,9,37,2,12,1
0017-12-21,9,4,6,70,13,6,9,3,12,1
0017-12-22,9,4,26,70,13,6,37,4,12,1
0017-12-23,13,17,20,70,19,24,29,5,12,0
0017-12-24,12,14,17,70,17,20,24,6,12,0
0017-12-25,10,18,27,70,14,26,39,0,12,0
0017-12-26,11,20,22,70,16,29,31,1,12,0
0017-12-27,10,18,26,70,14,26,37,2,12,0
0017-12-28,9,15,17,70,13,21,24,3,12,0
0017-12-29,9,17,26,70,13,24,37,4,12,0
0017-12-30,13,17,20,70,19,24,29,5,12,0
0017-12-31,12,14,17,70,17,20,24,6,12,0
0018-01-01,10,18,27,70,14,26,39,0,1,0
0018-01-02,1,4,5,70,1,6,7,1,1,1
0018-01-03,1,4,2,70,1,6,3,2,1,1
0018-01-04,1,5,2,70,1,7,3,3,1,1
0018-01-05,2,3,1,70,3,4,1,4,1,1
0018-01-06,2,5,20,70,3,7,29,5,1,1
0018-01-07,2,5,17,70,3,7,24,6,1,1
0018-01-08,2,18,5,70,3,26,7,0,1,1
0018-01-09,2,6,4,70,3,9,6,1,1,1
0018-01-10,2,4,6,70,3,6,9,2,1,1
0018-01-11,3,6,8,70,4,9,11,3,1,0
0018-01-12,2,5,7,70,3,7,10,4,1,0
0018-01-13,12,15,20,70,17,21,29,5,1,0
0018-01-14,10,15,24,70,14,21,34,6,1,0
0018-01-15,8,31,29,70,11,44,41,0,1,0
0018-01-16,14,41,40,70,20,59,57,1,1,1
0018-01-17,14,30,49,70,20,43,70,2,1,1
0018-01-18,19,35,43,70,27,50,61,3,1,1
0018-01-19,14,32,37,70,20,46,53,4,1,1
0018-01-20,13,29,32,70,19,41,46,5,1,1
0018-01-21,14,23,33,70,20,33,47,6,1,1
0018-01-22,14,42,56,70,20,60,80,0,1,1
0018-01-23,17,34,48,70,24,49,69,1,1,1
0018-01-24,17,39,49,70,24,56,70,2,1,1
0018-01-25,20,33,32,70,29,47,46,3,1,1
0018-01-26,18,40,43,70,26,57,61,4,1,1
0018-01-27,20,26,29,70,29,37,41,5,1,1
0018-01-28,17,24,26,70,24,34,37,6,1,1
0018-01-29,18,39,46,70,26,56,66,0,1,1
0018-01-30,19,32,35,70,27,46,50,1,1,1
0018-01-31,14,38,42,70,20,54,60,2,1,1
0018-02-01,23,27,40,70,33,39,57,3,2,1
0018-02-02,12,34,42,70,17,49,60,4,2,1
0018-02-03,26,24,36,70,37,34,51,5,2,1
0018-02-04,18,20,19,70,26,29,27,6,2,1
0018-02-05,15,33,37,70,21,47,53,0,2,1
0018-02-06,15,27,39,70,21,39,56,1,2,1
0018-02-07,10,24,26,70,14,34,37,2,2,1
0018-02-08,18,30,32,70,26,43,46,3,2,1
0018-02-09,22,36,46,70,31,51,66,4,2,1
0018-02-10,21,26,28,70,30,37,40,5,2,1
0018-02-11,15,21,24,70,21,30,34,6,2,1
0018-02-12,16,36,33,70,23,51,47,0,2,1
0018-02-13,15,27,28,70,21,39,40,1,2,1
0018-02-14,14,29,29,70,20,41,41,2,2,1
0018-02-15,15,28,28,70,21,40,40,3,2,1
0018-02-16,13,29,38,70,19,41,54,4,2,1
0018-02-17,19,28,28,70,27,40,40,5,2,1
0018-02-18,13,17,24,70,19,24,34,6,2,1
0018-02-19,18,33,43,70,26,47,61,0,2,1
0018-02-20,18,28,37,70,26,40,53,1,2,1
0018-02-21,14,37,39,70,20,53,56,2,2,1
0018-02-22,19,25,31,70,27,36,44,3,2,1
0018-02-23,13,32,40,70,19,46,57,4,2,1
0018-02-24,25,25,37,70,36,36,53,5,2,1
0018-02-25,18,18,30,70,26,26,43,6,2,1
0018-02-26,18,29,41,70,26,41,59,0,2,1
0018-02-27,14,27,35,70,20,39,50,1,2,1
0018-02-28,11,29,38,70,16,41,54,2,2,1
0018-03-01,14,27,18,70,20,39,26,3,3,1
0018-03-02,3,5,42,70,4,7,60,4,3,1
0018-03-03,1,8,32,70,1,11,46,5,3,1
0018-03-04,3,11,25,70,4,16,36,6,3,1
0018-03-05,6,8,21,70,9,11,30,0,3,1
0018-03-06,3,13,16,70,4,19,23,1,3,1
0018-03-07,2,12,26,70,3,17,37,2,3,1
0018-03-08,5,16,26,70,7,23,37,3,3,1
0018-03-09,9,29,35,70,13,41,50,4,3,1
0018-03-10,16,24,26,70,23,34,37,5,3,1
0018-03-11,9,18,24,70,13,26,34,6,3,1
0018-03-12,18,33,39,70,26,47,56,0,3,1
0018-03-13,14,33,25,70,20,47,36,1,3,1
0018-03-14,11,27,35,70,16,39,50,2,3,1
0018-03-15,16,20,37,70,23,29,53,3,3,1
0018-03-16,12,33,29,70,17,47,41,4,3,1
0018-03-17,15,20,22,70,21,29,31,5,3,1
0018-03-18,16,24,25,70,23,34,36,6,3,1
0018-03-19,18,29,40,70,26,41,57,0,3,1
0018-03-20,12,26,35,70,17,37,50,1,3,1
0018-03-21,12,28,39,70,17,40,56,2,3,1
0018-03-22,16,28,33,70,23,40,47,3,3,1
0018-03-23,14,36,21,70,20,51,30,4,3,1
0018-03-24,16,37,38,70,23,53,54,5,3,1
0018-03-25,21,19,26,70,30,27,37,6,3,1
0018-03-26,16,33,41,70,23,47,59,0,3,1
0018-03-27,13,22,29,70,19,31,41,1,3,1
0018-03-28,12,31,32,70,17,44,46,2,3,1
0018-03-29,13,23,25,70,19,33,36,3,3,1
0018-03-30,8,10,33,70,11,14,47,4,3,1
0018-03-31,15,23,31,70,21,33,44,5,3,0
0018-04-01,13,18,26,70,19,26,37,6,4,0
0018-04-02,3,7,10,70,4,10,14,0,4,1
0018-04-03,2,3,11,70,3,4,16,1,4,1
0018-04-04,3,5,9,70,4,7,13,2,4,1
0018-04-05,2,4,8,70,3,6,11,3,4,1
0018-04-06,2,5,32,70,3,7,46,4,4,1
0018-04-07,2,4,30,70,3,6,43,5,4,1
0018-04-08,7,5,17,70,10,7,24,6,4,1
0018-04-09,18,28,39,70,26,40,56,0,4,1
0018-04-10,16,31,44,70,23,44,63,1,4,1
0018-04-11,16,35,37,70,23,50,53,2,4,1
0018-04-12,13,23,26,70,19,33,37,3,4,1
0018-04-13,11,32,39,70,16,46,56,4,4,1
0018-04-14,16,22,22,70,23,31,31,5,4,1
0018-04-15,16,27,21,70,23,39,30,6,4,1
0018-04-16,15,29,42,70,21,41,60,0,4,1
0018-04-17,10,24,40,70,14,34,57,1,4,1
0018-04-18,12,30,41,70,17,43,59,2,4,1
0018-04-19,16,27,37,70,23,39,53,3,4,1
0018-04-20,11,32,29,70,16,46,41,4,4,1
0018-04-21,13,26,22,70,19,37,31,5,4,1
0018-04-22,17,19,16,70,24,27,23,6,4,1
0018-04-23,13,35,37,70,19,50,53,0,4,1
0018-04-24,19,26,30,70,27,37,43,1,4,1
0018-04-25,12,26,34,70,17,37,49,2,4,1
0018-04-26,15,26,33,70,21,37,47,3,4,1
0018-04-27,13,35,28,70,19,50,40,4,4,1
0018-04-28,17,24,27,70,24,34,39,5,4,1
0018-04-29,15,13,26,70,21,19,37,6,4,1
0018-04-30,14,30,38,70,20,43,54,0,4,1
0018-05-01,16,30,29,70,23,43,41,1,5,1
0018-05-02,11,31,33,70,16,44,47,2,5,1
0018-05-03,16,31,27,70,23,44,39,3,5,1
0018-05-04,10,34,37,70,14,49,53,4,5,1
0018-05-05,28,15,14,70,40,21,20,5,5,1
0018-05-06,12,15,26,70,17,21,37,6,5,1
0018-05-07,13,28,35,70,19,40,50,0,5,1
0018-05-08,15,27,30,70,21,39,43,1,5,1
0018-05-09,11,22,23,70,16,31,33,2,5,1
0018-05-10,13,22,22,70,19,31,31,3,5,1
0018-05-11,14,24,29,70,20,34,41,4,5,1
0018-05-12,15,18,25,70,21,26,36,5,5,1
0018-05-13,9,17,16,70,13,24,23,6,5,1
0018-05-14,11,18,22,70,16,26,31,0,5,1
0018-05-15,9,20,21,70,13,29,30,1,5,1
0018-05-16,7,13,34,70,10,19,49,2,5,1
0018-05-17,15,26,29,70,21,37,41,3,5,0
0018-05-18,12,31,32,70,17,44,46,4,5,0
0018-05-19,18,21,22,70,26,30,31,5,5,0
0018-05-20,14,18,21,70,20,26,30,6,5,0
0018-05-21,1,28,4,70,1,40,6,0,5,0
0018-05-22,1,3,3,70,1,4,4,1,5,0
0018-05-23,4,3,4,70,6,4,6,2,5,0
0018-05-24,3,1,3,70,4,1,4,3,5,0
0018-05-25,2,3,3,70,3,4,4,4,5,0
0018-05-26,18,21,22,70,26,30,31,5,5,0
0018-05-27,13,16,21,70,19,23,30,6,5,0
0018-05-28,10,28,27,70,14,40,39,0,5,0
0018-05-29,2,4,5,70,3,6,7,1,5,1
0018-05-30,3,3,4,70,4,4,6,2,5,1
0018-05-31,3,3,9,70,4,4,13,3,5,1
0018-06-01,2,2,4,70,3,3,6,4,6,1
0018-06-02,4,4,22,70,6,6,31,5,6,1
0018-06-03,1,3,22,70,1,4,31,6,6,1
0018-06-04,2,6,8,70,3,9,11,0,6,1
0018-06-05,2,5,8,70,3,7,11,1,6,1
0018-06-06,4,3,7,70,6,4,10,2,6,1
0018-06-07,2,4,11,70,3,6,16,3,6,1
0018-06-08,2,6,7,70,3,9,10,4,6,1
0018-06-09,4,3,21,70,6,4,30,5,6,1
0018-06-10,2,4,21,70,3,6,30,6,6,1
0018-06-11,2,5,12,70,3,7,17,0,6,1
0018-06-12,4,6,9,70,6,9,13,1,6,1
0018-06-13,4,2,7,70,6,3,10,2,6,1
0018-06-14,3,3,7,70,4,4,10,3,6,1
0018-06-15,3,4,7,70,4,6,10,4,6,1
0018-06-16,4,5,22,70,6,7,31,5,6,1
0018-06-17,1,2,20,70,1,3,29,6,6,1
0018-06-18,2,5,9,70,3,7,13,0,6,1
0018-06-19,2,5,11,70,3,7,16,1,6,1
0018-06-20,3,3,6,70,4,4,9,2,6,1
0018-06-21,1,4,7,70,1,6,10,3,6,1
0018-06-22,2,4,6,70,3,6,9,4,6,1
0018-06-23,3,2,22,70,4,3,31,5,6,1
0018-06-24,2,2,21,70,3,3,30,6,6,1
0018-06-25,4,4,10,70,6,6,14,0,6,1
0018-06-26,3,3,8,70,4,4,11,1,6,1
0018-06-27,2,4,4,70,3,6,6,2,6,1
0018-06-28,3,3,5,70,4,4,7,3,6,1
0018-06-29,2,2,5,70,3,3,7,4,6,1
0018-06-30,7,7,22,70,10,10,31,5,6,0
0018-07-01,4,5,21,70,6,7,30,6,7,0
0018-07-02,4,10,13,70,6,14,19,0,7,0
0018-07-03,3,5,8,70,4,7,11,1,7,0
0018-07-04,3,3,6,70,4,4,9,2,7,0
0018-07-05,3,3,7,70,4,4,10,3,7,1
0018-07-06,1,4,8,70,1,6,11,4,7,1
0018-07-07,2,3,22,70,3,4,31,5,7,1
0018-07-08,1,4,21,70,1,6,30,6,7,1
0018-07-09,3,4,10,70,4,6,14,0,7,1
0018-07-10,3,4,10,70,4,6,14,1,7,1
0018-07-11,2,3,8,70,3,4,11,2,7,1
0018-07-12,2,4,5,70,3,6,7,3,7,1
0018-07-13,3,3,6,70,4,4,9,4,7,1
0018-07-14,0,4,22,70,0,6,31,5,7,1
0018-07-15,2,1,21,70,3,1,30,6,7,1
0018-07-16,2,4,10,70,3,6,14,0,7,1
0018-07-17,2,6,12,70,3,9,17,1,7,1
0018-07-18,3,3,7,70,4,4,10,2,7,1
0018-07-19,2,4,8,70,3,6,11,3,7,1
0018-07-20,3,4,6,70,4,6,9,4,7,1
0018-07-21,3,5,22,70,4,7,31,5,7,1
0018-07-22,2,3,21,70,3,4,30,6,7,1
0018-07-23,3,6,11,70,4,9,16,0,7,1
0018-07-24,1,3,9,70,1,4,13,1,7,1
0018-07-25,2,3,5,70,3,4,7,2,7,1
0018-07-26,3,3,7,70,4,4,10,3,7,1
0018-07-27,2,3,6,70,3,4,9,4,7,1
0018-07-28,4,3,22,70,6,4,31,5,7,1
0018-07-29,0,3,21,70,0,4,30,6,7,1
0018-07-30,3,4,8,70,4,6,11,0,7,1
0018-07-31,1,3,5,70,1,4,7,1,7,1
0018-08-01,3,3,6,70,4,4,9,2,8,1
0018-08-02,2,2,7,70,3,3,10,3,8,1
0018-08-03,2,3,5,70,3,4,7,4,8,1
0018-08-04,3,1,22,70,4,1,31,5,8,1
0018-08-05,1,1,21,70,1,1,30,6,8,1
0018-08-06,2,4,5,70,3,6,7,0,8,1
0018-08-07,0,3,6,70,0,4,9,1,8,1
0018-08-08,2,3,6,70,3,4,9,2,8,1
0018-08-09,2,3,7,70,3,4,10,3,8,1
0018-08-10,3,2,6,70,4,3,9,4,8,0
0018-08-11,2,3,22,70,3,4,31,5,8,0
0018-08-12,1,2,21,70,1,3,30,6,8,0
0018-08-13,2,2,3,70,3,3,4,0,8,0
0018-08-14,1,5,5,70,1,7,7,1,8,0
0018-08-15,3,2,6,70,4,3,9,2,8,0
0018-08-16,2,2,4,70,3,3,6,3,8,0
0018-08-17,1,4,6,70,1,6,9,4,8,0
0018-08-18,2,6,22,70,3,9,31,5,8,0
0018-08-19,1,10,21,70,1,14,30,6,8,0
0018-08-20,2,41,27,70,3,59,39,0,8,0
0018-08-21,1,49,32,70,1,70,46,1,8,0
0018-08-22,14,34,36,70,20,49,51,2,8,1
0018-08-23,14,29,36,70,20,41,51,3,8,1
0018-08-24,10,43,37,70,14,61,53,4,8,1
0018-08-25,16,18,30,70,23,26,43,5,8,1
0018-08-26,16,27,26,70,23,39,37,6,8,1
0018-08-27,15,32,52,70,21,46,74,0,8,1
0018-08-28,21,29,42,70,30,41,60,1,8,1
0018-08-29,14,29,33,70,20,41,47,2,8,1
0018-08-30,15,23,33,70,21,33,47,3,8,1
0018-08-31,10,32,42,70,14,46,60,4,8,1
0018-09-01,17,34,24,70,24,49,34,5,9,1
0018-09-02,19,31,22,70,27,44,31,6,9,1
0018-09-03,18,27,20,70,26,39,29,0,9,0
0018-09-04,14,24,40,70,20,34,57,1,9,1
0018-09-05,14,28,33,70,20,40,47,2,9,1
0018-09-06,15,20,33,70,21,29,47,3,9,1
0018-09-07,9,23,30,70,13,33,43,4,9,1
0018-09-08,11,19,24,70,16,27,34,5,9,1
0018-09-09,5,27,22,70,7,39,31,6,9,1
0018-09-10,5,24,45,70,7,34,64,0,9,1
0018-09-11,7,23,22,70,10,33,31,1,9,1
0018-09-12,13,30,35,70,19,43,50,2,9,1
0018-09-13,14,30,46,70,20,43,66,3,9,1
0018-09-14,13,38,38,70,19,54,54,4,9,1
0018-09-15,18,26,26,70,26,37,37,5,9,1
0018-09-16,13,19,17,70,19,27,24,6,9,1
0018-09-17,13,27,39,70,19,39,56,0,9,1
0018-09-18,16,23,37,70,23,33,53,1,9,1
0018-09-19,9,30,30,70,13,43,43,2,9,1
0018-09-20,11,22,39,70,16,31,56,3,9,1
0018-09-21,16,32,35,70,23,46,50,4,9,1
0018-09-22,13,15,24,70,19,21,34,5,9,1
0018-09-23,16,18,21,70,23,26,30,6,9,1
0018-09-24,13,26,37,70,19,37,53,0,9,1
0018-09-25,13,22,35,70,19,31,50,1,9,1
0018-09-26,11,25,28,70,16,36,40,2,9,1
0018-09-27,17,20,33,70,24,29,47,3,9,1
0018-09-28,10,27,32,70,14,39,46,4,9,1
0018-09-29,17,20,13,70,24,29,19,5,9,1
0018-09-30,15,18,19,70,21,26,27,6,9,1
0018-10-01,12,29,44,70,17,41,63,0,10,1
0018-10-02,12,19,34,70,17,27,49,1,10,1
0018-10-03,14,24,34,70,20,34,49,2,10,1
0018-10-04,10,19,35,70,14,27,50,3,10,1
0018-10-05,10,27,34,70,14,39,49,4,10,1
0018-10-06,13,21,24,70,19,30,34,5,10,1
0018-10-07,10,16,20,70,14,23,29,6,10,1
0018-10-08,11,28,42,70,16,40,60,0,10,1
0018-10-09,14,26,35,70,20,37,50,1,10,1
0018-10-10,9,23,24,70,13,33,34,2,10,1
0018-10-11,6,11,18,70,9,16,26,3,10,1
0018-10-12,3,11,17,70,4,16,24,4,10,1
0018-10-13,3,13,22,70,4,19,31,5,10,1
0018-10-14,5,7,16,70,7,10,23,6,10,1
0018-10-15,16,28,36,70,23,40,51,0,10,1
0018-10-16,14,21,32,70,20,30,46,1,10,1
0018-10-17,12,20,32,70,17,29,46,2,10,1
0018-10-18,12,17,28,70,17,24,40,3,10,1
0018-10-19,10,28,37,70,14,40,53,4,10,1
0018-10-20,10,20,27,70,14,29,39,5,10,1
0018-10-21,15,16,19,70,21,23,27,6,10,1
0018-10-22,11,29,38,70,16,41,54,0,10,1
0018-10-23,12,24,24,70,17,34,34,1,10,1
0018-10-24,11,25,32,70,16,36,46,2,10,1
0018-10-25,16,20,29,70,23,29,41,3,10,1
0018-10-26,8,32,22,70,11,46,31,4,10,1
0018-10-27,9,12,25,70,13,17,36,5,10,1
0018-10-28,15,12,19,70,21,17,27,6,10,1
0018-10-29,10,27,40,70,14,39,57,0,10,1
0018-10-30,13,17,33,70,19,24,47,1,10,1
0018-10-31,9,29,26,70,13,41,37,2,10,1
0018-11-01,9,21,36,70,13,30,51,3,11,1
0018-11-02,8,22,41,70,11,31,59,4,11,1
0018-11-03,14,19,24,70,20,27,34,5,11,1
0018-11-04,20,20,19,70,29,29,27,6,11,1
0018-11-05,14,28,40,70,20,40,57,0,11,1
0018-11-06,10,27,37,70,14,39,53,1,11,1
0018-11-07,8,27,33,70,11,39,47,2,11,1
0018-11-08,14,23,32,70,20,33,46,3,11,1
0018-11-09,9,28,29,70,13,40,41,4,11,1
0018-11-10,14,15,30,70,20,21,43,5,11,1
0018-11-11,12,19,15,70,17,27,21,6,11,1
0018-11-12,12,32,46,70,17,46,66,0,11,1
0018-11-13,7,26,39,70,10,37,56,1,11,1
0018-11-14,12,20,31,70,17,29,44,2,11,1
0018-11-15,13,21,18,70,19,30,26,3,11,1
0018-11-16,3,29,27,70,4,41,39,4,11,1
0018-11-17,14,26,22,70,20,37,31,5,11,1
0018-11-18,15,20,17,70,21,29,24,6,11,1
0018-11-19,8,23,28,70,11,33,40,0,11,1
0018-11-20,8,16,8,70,11,23,11,1,11,1
0018-11-21,3,6,31,70,4,9,44,2,11,1
0018-11-22,13,20,29,70,19,29,41,3,11,0
0018-11-23,8,28,31,70,11,40,44,4,11,0
0018-11-24,12,18,26,70,17,26,37,5,11,0
0018-11-25,15,17,12,70,21,24,17,6,11,1
0018-11-26,10,26,40,70,14,37,57,0,11,1
0018-11-27,12,25,32,70,17,36,46,1,11,1
0018-11-28,10,24,25,70,14,34,36,2,11,1
0018-11-29,11,15,30,70,16,21,43,3,11,1
0018-11-30,11,28,28,70,16,40,40,4,11,1
0018-12-01,11,11,14,70,16,16,20,5,12,1
0018-12-02,13,20,18,70,19,29,26,6,12,1
0018-12-03,10,27,34,70,14,39,49,0,12,1
0018-12-04,12,18,34,70,17,26,49,1,12,1
0018-12-05,9,26,25,70,13,37,36,2,12,1
0018-12-06,9,21,24,70,13,30,34,3,12,1
0018-12-07,10,22,20,70,14,31,29,4,12,1
0018-12-08,9,18,26,70,13,26,37,5,12,1
0018-12-09,15,16,17,70,21,23,24,6,12,1
0018-12-10,13,18,23,70,19,26,33,0,12,1
0018-12-11,8,15,18,70,11,21,26,1,12,1
0018-12-12,9,11,15,70,13,16,21,2,12,1
0018-12-13,6,10,13,70,9,14,19,3,12,1
0018-12-14,5,15,27,70,7,21,39,4,12,1
0018-12-15,12,18,24,70,17,26,34,5,12,1
0018-12-16,14,18,16,70,20,26,23,6,12,1
0018-12-17,11,8,34,70,16,11,49,0,12,1
0018-12-18,9,6,10,70,13,9,14,1,12,1
0018-12-19,9,5,14,70,13,7,20,2,12,1
0018-12-20,10,4,10,70,14,6,14,3,12,1
0018-12-21,7,4,3,70,10,6,4,4,12,1
0018-12-22,12,18,22,70,17,26,31,5,12,0
0018-12-23,14,18,16,70,20,26,23,6,12,0
0018-12-24,10,20,32,70,14,29,46,0,12,0
0018-12-25,10,16,20,70,14,23,29,1,12,0
0018-12-26,8,14,22,70,11,20,31,2,12,0
0018-12-27,10,14,21,70,14,20,30,3,12,0
0018-12-28,8,19,22,70,11,27,31,4,12,0
0018-12-29,11,17,22,70,16,24,31,5,12,0
0018-12-30,14,18,16,70,20,26,23,6,12,0
0018-12-31,11,20,33,70,16,29,47,0,12,0
0019-01-01,10,16,23,70,14,23,33,1,1,0
0019-01-02,1,7,5,70,1,10,7,2,1,1
0019-01-03,2,5,9,70,3,7,13,3,1,1
0019-01-04,8,3,8,70,11,4,11,4,1,1
0019-01-05,3,7,22,70,4,10,31,5,1,1
0019-01-06,1,7,17,70,1,10,24,6,1,1
0019-01-07,11,6,7,70,16,9,10,0,1,1
0019-01-08,10,4,7,70,14,6,10,1,1,1
0019-01-09,3,5,6,70,4,7,9,2,1,1
0019-01-10,0,3,6,70,0,4,9,3,1,1
0019-01-11,8,5,4,70,11,7,6,4,1,1
0019-01-12,4,8,23,70,6,11,33,5,1,1
0019-01-13,2,6,16,70,3,9,23,6,1,1
0019-01-14,2,6,26,70,3,9,37,0,1,1
0019-01-15,1,5,10,70,1,7,14,1,1,0
0019-01-16,2,8,11,70,3,11,16,2,1,0
0019-01-17,2,8,13,70,3,11,19,3,1,0
0019-01-18,3,9,9,70,4,13,13,4,1,0
0019-01-19,8,19,23,70,11,27,33,5,1,0
0019-01-20,9,13,32,70,13,19,46,6,1,0
0019-01-21,9,33,32,70,13,47,46,0,1,0
0019-01-22,16,40,47,70,23,57,67,1,1,1
0019-01-23,15,29,46,70,21,41,66,2,1,1
0019-01-24,15,37,42,70,21,53,60,3,1,1
0019-01-25,16,38,46,70,23,54,66,4,1,1
0019-01-26,22,27,33,70,31,39,47,5,1,1
0019-01-27,11,22,29,70,16,31,41,6,1,1
0019-01-28,19,36,58,70,27,51,83,0,1,1
0019-01-29,22,36,43,70,31,51,61,1,1,1
0019-01-30,16,36,44,70,23,51,63,2,1,1
0019-01-31,12,29,39,70,17,41,56,3,1,1
0019-02-01,15,31,48,70,21,44,69,4,2,1
0019-02-02,17,31,39,70,24,44,56,5,2,1
0019-02-03,18,26,15,70,26,37,21,6,2,1
0019-02-04,21,36,52,70,30,51,74,0,2,1
0019-02-05,21,38,43,70,30,54,61,1,2,1
0019-02-06,19,33,34,70,27,47,49,2,2,1
0019-02-07,18,29,37,70,26,41,53,3,2,1
0019-02-08,16,38,46,70,23,54,66,4,2,1
0019-02-09,16,28,34,70,23,40,49,5,2,1
0019-02-10,9,22,18,70,13,31,26,6,2,1
0019-02-11,20,39,46,70,29,56,66,0,2,1
0019-02-12,14,37,33,70,20,53,47,1,2,1
0019-02-13,17,31,37,70,24,44,53,2,2,1
0019-02-14,15,29,35,70,21,41,50,3,2,1
0019-02-15,15,32,38,70,21,46,54,4,2,1
0019-02-16,17,28,35,70,24,40,50,5,2,1
0019-02-17,12,23,25,70,17,33,36,6,2,1
0019-02-18,27,39,45,70,39,56,64,0,2,1
0019-02-19,14,29,41,70,20,41,59,1,2,1
0019-02-20,17,32,39,70,24,46,56,2,2,1
0019-02-21,15,26,39,70,21,37,56,3,2,1
0019-02-22,17,38,42,70,24,54,60,4,2,1
0019-02-23,14,27,26,70,20,39,37,5,2,1
0019-02-24,16,24,26,70,23,34,37,6,2,1
0019-02-25,15,31,38,70,21,44,54,0,2,1
0019-02-26,19,31,31,70,27,44,44,1,2,1
0019-02-27,14,28,41,70,20,40,59,2,2,1
0019-02-28,16,22,36,70,23,31,51,3,2,1
0019-03-01,17,29,45,70,24,41,64,4,3,1
0019-03-02,18,16,13,70,26,23,19,5,3,1
0019-03-03,13,13,27,70,19,19,39,6,3,1
0019-03-04,16,35,42,70,23,50,60,0,3,1
0019-03-05,20,28,39,70,29,40,56,1,3,1
0019-03-06,18,33,44,70,26,47,63,2,3,1
0019-03-07,18,26,30,70,26,37,43,3,3,1
0019-03-08,16,33,47,70,23,47,67,4,3,1
0019-03-09,17,29,32,70,24,41,46,5,3,1
0019-03-10,15,17,23,70,21,24,33,6,3,1
0019-03-11,14,31,37,70,20,44,53,0,3,1
0019-03-12,13,29,31,70,19,41,44,1,3,1
0019-03-13,12,27,42,70,17,39,60,2,3,1
0019-03-14,14,20,24,70,20,29,34,3,3,1
0019-03-15,14,23,44,70,20,33,63,4,3,1
0019-03-16,3,10,28,70,4,14,40,5,3,0
0019-03-17,13,10,24,70,19,14,34,6,3,0
0019-03-18,18,9,8,70,26,13,11,0,3,0
0019-03-19,3,31,13,70,4,44,19,1,3,0
0019-03-20,4,30,16,70,6,43,23,2,3,0
0019-03-21,3,25,11,70,4,36,16,3,3,0
0019-03-22,2,31,11,70,3,44,16,4,3,0
0019-03-23,5,7,27,70,7,10,39,5,3,0
0019-03-24,4,11,16,70,6,16,23,6,3,0
0019-03-25,17,34,44,70,24,49,63,0,3,1
0019-03-26,20,31,41,70,29,44,59,1,3,1
0019-03-27,17,30,36,70,24,43,51,2,3,1
0019-03-28,18,21,33,70,26,30,47,3,3,1
0019-03-29,13,31,34,70,19,44,49,4,3,1
0019-03-30,17,24,35,70,24,34,50,5,3,1
0019-03-31,10,19,25,70,14,27,36,6,3,1
0019-04-01,17,32,39,70,24,46,56,0,4,1
0019-04-02,16,27,37,70,23,39,53,1,4,1
0019-04-03,15,30,37,70,21,43,53,2,4,1
0019-04-04,16,26,33,70,23,37,47,3,4,1
0019-04-05,13,27,35,70,19,39,50,4,4,1
0019-04-06,13,25,27,70,19,36,39,5,4,1
0019-04-07,12,18,21,70,17,26,30,6,4,1
0019-04-08,17,38,41,70,24,54,59,0,4,1
0019-04-09,15,31,31,70,21,44,44,1,4,1
0019-04-10,16,27,36,70,23,39,51,2,4,1
0019-04-11,15,23,30,70,21,33,43,3,4,1
0019-04-12,13,35,30,70,19,50,43,4,4,1
0019-04-13,11,26,18,70,16,37,26,5,4,1
0019-04-14,15,17,22,70,21,24,31,6,4,1
0019-04-15,10,30,42,70,14,43,60,0,4,1
0019-04-16,16,28,36,70,23,40,51,1,4,1
0019-04-17,12,30,31,70,17,43,44,2,4,1
0019-04-18,17,26,23,70,24,37,33,3,4,1
0019-04-19,5,22,31,70,7,31,44,4,4,1
0019-04-20,10,18,27,70,14,26,39,5,4,1
0019-04-21,11,15,22,70,16,21,31,6,4,1
0019-04-22,12,39,43,70,17,56,61,0,4,1
0019-04-23,17,35,40,70,24,50,57,1,4,1
0019-04-24,15,27,42,70,21,39,60,2,4,1
0019-04-25,14,27,32,70,20,39,46,3,4,1
0019-04-26,10,30,32,70,14,43,46,4,4,1
0019-04-27,14,22,25,70,20,31,36,5,4,1
